country_region,last_update,lat,long,confirmed,deaths,recovered,active,incident_rate,people_tested,people_hospitalized,mortality_rate,uid,iso3
Australia,2020-05-21 13:32:48,-25,133,7081,100,6472,509,27.8125822378111,,,1.41222991102952,36,AUS
Austria,2020-05-21 13:32:48,47.5162,14.5501,16404,633,14951,820,182.137146917747,,,3.85881492318947,40,AUT
Canada,2020-05-21 13:32:48,60.001,-95.001,81575,6150,40793,34632,215.489333680828,,,7.53907447134539,124,CAN
China,2020-05-21 13:32:48,30.5928,114.3055,84063,4638,79310,115,5.98451032488032,,,5.51729060347596,156,CHN
Denmark,2020-05-21 13:32:48,56.2639,9.5018,11380,561,9841,978,196.471014569068,,,4.92970123022847,208,DNK
Finland,2020-05-21 13:32:48,61.9241,25.7482,6493,306,4800,1387,117.186978294149,,,4.71276759587248,246,FIN
France,2020-05-21 13:32:48,46.2276,2.2137,181700,28135,63472,90093,278.367126928914,,,15.484314804623,250,FRA
Germany,2020-05-21 13:32:48,51.165691,10.451526,178748,8195,158057,12496,213.343976581671,,,4.58466668158525,276,DEU
Iceland,2020-05-21 13:32:48,64.9631,-19.0208,1803,10,1789,4,528.351648351648,,,0.554631170271769,352,ISL
Ireland,2020-05-21 13:32:48,53.1424,-7.6921,24315,1571,21060,1684,492.426175564969,,,6.46103228459798,372,IRL
Italy,2020-05-21 13:32:48,41.8719,12.5674,227364,32330,132282,62752,376.045527435922,,,14.2194894530357,380,ITA
Netherlands,2020-05-21 13:32:48,52.3167,5.55,44900,5794,169,38937,262.038709011733,,,12.9042316258352,528,NLD
Norway,2020-05-21 13:32:48,60.472,8.4689,8281,234,32,8015,152.750974776629,,,2.82574568288854,578,NOR
Russia,2020-05-21 13:32:48,61.524,105.3188,317554,3099,92681,221774,217.600421449464,,,0.975897012791525,643,RUS
Sweden,2020-05-21 13:32:48,60.1282,18.6435,32172,3871,4971,23330,318.557677931177,,,12.0322019147084,752,SWE
Switzerland,2020-05-21 13:32:48,46.8182,8.2275,30694,1893,27800,1001,354.654590185263,,,6.16732911969766,756,CHE
United Kingdom,2020-05-21 13:32:48,55,-3,249619,35786,1116,212717,367.703186653909,,,14.3362484426266,826,GBR
US,2020-05-21 13:32:48,40,-100,1552594,93471,294312,1163115,471.245186567391,,,6.02031181364864,840,USA
Spain,2020-05-21 13:32:48,40.463667,-3.74922,232555,27888,150376,54291,497.392961913651,,,11.9920018920255,724,ESP
Mexico,2020-05-21 13:32:48,23.6345,-102.5528,56594,6090,38419,12085,44.2859281819248,,,10.7608580414885,484,MEX
Chile,2020-05-21 13:32:48,-35.6751,-71.543,53617,544,22504,30569,280.47925192699,,,1.01460357722364,152,CHL
Brazil,2020-05-21 13:32:48,-14.235,-51.9253,291579,18859,116683,156037,137.175296719046,,,6.46788691915399,76,BRA
Afghanistan,2020-05-21 13:32:48,33.93911,67.709953,8676,193,938,7545,22.2871044003648,,,2.22452743199631,4,AFG
Albania,2020-05-21 13:32:48,41.1533,20.1683,969,31,771,167,33.6715546598096,,,3.19917440660475,8,ALB
Algeria,2020-05-21 13:32:48,28.0339,1.6596,7542,568,3968,3006,17.1991348073522,,,7.53115884380801,12,DZA
Andorra,2020-05-21 13:32:48,42.5063,1.5218,762,51,639,72,986.216268685692,,,6.69291338582677,20,AND
Angola,2020-05-21 13:32:48,-11.2027,17.8739,58,3,17,38,0.176472728817279,,,5.17241379310345,24,AGO
Antigua and Barbuda,2020-05-21 13:32:48,17.0608,-61.7964,25,3,19,3,25.5289600522833,,,12,28,ATG
Argentina,2020-05-21 13:32:48,-38.4161,-63.6167,9283,403,2933,5947,20.5395296113617,,,4.34126898631908,32,ARG
Armenia,2020-05-21 13:32:48,40.0691,45.0382,5606,70,2581,2955,189.185194284353,,,1.24866214769889,51,ARM
Azerbaijan,2020-05-21 13:32:48,40.1431,47.5769,3749,44,2340,1365,36.9753949409099,,,1.17364630568152,31,AZE
Bahamas,2020-05-21 13:32:48,25.025885,-78.035889,97,11,43,43,24.6663682968508,,,11.340206185567,44,BHS
Bahrain,2020-05-21 13:32:48,26.0275,50.55,8039,12,3715,4312,472.442425670684,,,0.149272297549446,48,BHR
Bangladesh,2020-05-21 13:32:48,23.685,90.3563,28511,408,5602,22501,17.3119842218366,,,1.43102662130406,50,BGD
Barbados,2020-05-21 13:32:48,13.1939,-59.5432,90,7,70,13,31.3184002561149,,,7.77777777777778,52,BRB
Belarus,2020-05-21 13:32:48,53.7098,27.9534,33371,185,12057,21129,353.157650163435,,,0.554373557879596,112,BLR
Belgium,2020-05-21 13:32:48,50.8333,4.469936,56235,9186,14988,32061,485.218837276403,,,16.3350226727127,56,BEL
Belize,2020-05-21 13:32:48,13.1939,-59.5432,18,2,16,0,4.52692387977496,,,11.1111111111111,84,BLZ
Benin,2020-05-21 13:32:48,9.3077,2.3158,130,2,57,71,1.07232431574573,,,1.53846153846154,204,BEN
Bhutan,2020-05-21 13:32:48,27.5142,90.4336,21,0,6,15,2.72157509214476,,,0,64,BTN
Bolivia,2020-05-21 13:32:48,-16.2902,-63.5887,4919,199,553,4167,42.1398764622276,,,4.04553771091685,68,BOL
Bosnia and Herzegovina,2020-05-21 13:32:48,43.9159,17.6791,2350,140,1596,614,71.6285435173882,,,5.95744680851064,70,BIH
Botswana,2020-05-21 13:32:48,-22.3285,24.6849,29,1,17,11,1.23318981555307,,,3.44827586206897,72,BWA
Brunei,2020-05-21 13:32:48,4.5353,114.7277,141,1,136,4,32.2298237874386,,,0.709219858156028,96,BRN
Bulgaria,2020-05-21 13:32:48,42.7339,25.4858,2331,120,727,1484,33.547074201494,,,5.14800514800515,100,BGR
Burkina Faso,2020-05-21 13:32:48,12.2383,-1.5616,812,52,669,91,3.88455820182844,,,6.40394088669951,854,BFA
Burma,2020-05-21 13:32:48,21.9162,95.956,199,6,108,85,0.365742976347236,,,3.01507537688442,104,MMR
Burundi,2020-05-21 13:32:48,-3.3731,29.9189,42,1,20,21,0.353214814064778,,,2.38095238095238,108,BDI
Cabo Verde,2020-05-21 13:32:48,16.5388,-23.0418,349,3,85,261,62.7711389454449,,,0.859598853868195,132,CPV
Cambodia,2020-05-21 13:32:48,11.55,104.9167,122,0,122,0,0.729709980357045,,,0,116,KHM
Cameroon,2020-05-21 13:32:48,3.848,11.5021,3733,146,1595,1992,14.0624543243347,,,3.91106348781141,120,CMR
Central African Republic,2020-05-21 13:32:48,6.6111,20.9394,418,0,18,400,8.65466718456637,,,0,140,CAF
Chad,2020-05-21 13:32:48,15.4542,18.7322,565,57,177,331,3.4396983439344,,,10.0884955752212,148,TCD
Colombia,2020-05-21 13:32:48,4.5709,-74.2973,17687,630,4256,12801,34.7602152425165,,,3.56193814666139,170,COL
Comoros,2020-05-21 13:32:48,-11.6455,43.3333,34,1,8,25,3.90986608708652,,,2.94117647058824,174,COM
Congo (Brazzaville),2020-05-21 13:32:48,-4.2634,15.2832,420,15,132,273,7.6113265237332,,,3.57142857142857,178,COG
Congo (Kinshasa),2020-05-21 13:32:48,-4.322447,15.307045,1835,61,303,1471,2.0488736420434,,,3.32425068119891,180,COD
Costa Rica,2020-05-21 13:32:48,9.7489,-83.7534,897,10,582,305,17.6085576412306,,,1.11482720178372,188,CRI
Cote d'Ivoire,2020-05-21 13:32:48,7.54,-5.5471,2231,29,1083,1119,8.45771757250995,,,1.29986553115195,384,CIV
Croatia,2020-05-21 13:32:48,45.1,15.2,2237,97,1978,162,54.4909613696353,,,4.33616450603487,191,HRV
Cuba,2020-05-21 13:32:48,21.521757,-77.781167,1900,79,1573,248,16.7746483150837,,,4.15789473684211,192,CUB
Cyprus,2020-05-21 13:32:48,35.1264,33.4299,922,17,516,389,76.3648983195581,,,1.84381778741866,196,CYP
Czechia,2020-05-21 13:32:48,49.8175,15.473,8721,304,5830,2587,81.4363120602873,,,3.48583877995643,203,CZE
Diamond Princess,2020-05-21 13:32:48,,,712,13,651,48,,,,1.82584269662921,9999,
Djibouti,2020-05-21 13:32:48,11.8251,42.5903,1828,9,1052,767,185.019868380833,,,0.492341356673961,262,DJI
Dominica,2020-05-21 13:32:48,15.415,-61.371,16,0,16,0,22.2250003472656,,,0,212,DMA
Dominican Republic,2020-05-21 13:32:48,18.7357,-70.1627,13477,446,7142,5889,124.235981439364,,,3.30934184165615,214,DOM
Ecuador,2020-05-21 13:32:48,-1.8312,-78.1834,34854,2888,3557,28409,197.55076500335,,,8.2859929993688,218,ECU
Egypt,2020-05-21 13:32:48,26.820553,30.802498,14229,680,3994,9555,13.9044149209528,,,4.77897252090801,818,EGY
El Salvador,2020-05-21 13:32:48,13.7942,-88.8965,1640,32,540,1068,25.2844461650202,,,1.95121951219512,222,SLV
Equatorial Guinea,2020-05-21 13:32:48,1.6508,10.2679,890,7,22,861,63.4361735870305,,,0.786516853932584,226,GNQ
Eritrea,2020-05-21 13:32:48,15.1794,39.7823,39,0,39,0,1.09969837247461,,,0,232,ERI
Estonia,2020-05-21 13:32:48,58.5953,25.0136,1800,64,963,773,135.691449704833,,,3.55555555555556,233,EST
Eswatini,2020-05-21 13:32:48,-26.5225,31.4659,217,2,97,118,18.7042521574536,,,0.921658986175115,748,SWZ
Ethiopia,2020-05-21 13:32:48,9.145,40.4897,398,5,123,270,0.346196586444248,,,1.25628140703518,231,ETH
Fiji,2020-05-21 13:32:48,-17.7134,178.065,18,0,15,3,2.0079335686334,,,0,242,FJI
Gabon,2020-05-21 13:32:48,-0.8037,11.6094,1567,12,365,1190,70.4039307588349,,,0.765794511805999,266,GAB
Gambia,2020-05-21 13:32:48,13.4432,-15.3101,24,1,13,10,0.993104544115359,,,4.16666666666667,270,GMB
Georgia,2020-05-21 13:32:48,42.3154,43.3569,721,12,485,224,18.0739125257729,,,1.66435506241331,268,GEO
Ghana,2020-05-21 13:32:48,7.9465,-1.0232,6269,31,1898,4340,20.1751073160269,,,0.494496729940979,288,GHA
Greece,2020-05-21 13:32:48,39.0742,21.8243,2850,166,1374,1310,27.343228319986,,,5.82456140350877,300,GRC
Grenada,2020-05-21 13:32:48,12.1165,-61.679,22,0,17,5,19.552253397204,,,0,308,GRD
Guatemala,2020-05-21 13:32:48,15.7835,-90.2308,2265,45,159,2061,12.6426364289782,,,1.98675496688742,320,GTM
Guinea,2020-05-21 13:32:48,9.9456,-9.6966,2863,18,1525,1320,21.8003909602771,,,0.628711142158575,324,GIN
Guinea-Bissau,2020-05-21 13:32:48,11.8037,-15.1804,1089,6,42,1041,55.3354220888436,,,0.550964187327824,624,GNB
Guyana,2020-05-21 13:32:48,4.860416,-58.93018,125,10,47,68,15.8920055583879,,,8,328,GUY
Haiti,2020-05-21 13:32:48,18.9712,-72.2852,663,22,21,620,5.81449753313584,,,3.31825037707391,332,HTI
Holy See,2020-05-21 13:32:48,41.9029,12.4534,12,0,2,10,1483.31273176761,,,0,336,VAT
Honduras,2020-05-21 13:32:48,15.2,-86.2419,3100,151,355,2594,31.2985632545983,,,4.87096774193548,340,HND
Hungary,2020-05-21 13:32:48,47.1625,19.5033,3641,473,1509,1659,37.6901458021707,,,12.9909365558912,348,HUN
India,2020-05-21 13:32:48,20.593684,78.96288,113461,3457,46002,64002,8.22178546918168,,,3.04686191731079,356,IND
Indonesia,2020-05-21 13:32:48,-0.7893,113.9213,20162,1278,4838,14046,7.37120981591568,,,6.33865687927785,360,IDN
Iran,2020-05-21 13:32:48,32.427908,53.688046,129341,7249,100564,21528,153.99029963859,,,5.60456467786703,364,IRN
Iraq,2020-05-21 13:32:48,33.223191,43.679291,3724,134,2438,1152,9.25849890545101,,,3.59828141783029,368,IRQ
Israel,2020-05-21 13:32:48,31.046051,34.851612,16670,279,13617,2774,192.593391909298,,,1.67366526694661,376,ISR
Jamaica,2020-05-21 13:32:48,18.1096,-77.2975,529,9,171,349,17.8646145886698,,,1.70132325141777,388,JAM
Japan,2020-05-21 13:32:48,36.204824,138.252924,16385,771,12286,3328,12.954980127606,,,4.70552334452243,392,JPN
Jordan,2020-05-21 13:32:48,31.24,36.51,672,9,446,217,6.5862077752535,,,1.33928571428571,400,JOR
Kazakhstan,2020-05-21 13:32:48,48.0196,66.9237,7234,35,3777,3422,38.5264572749631,,,0.483826375449267,398,KAZ
Kenya,2020-05-21 13:32:48,-0.0236,37.9062,1029,50,366,613,1.91366026114303,,,4.85908649173955,404,KEN
"Korea, South",2020-05-21 13:32:48,35.907757,127.766922,11122,264,10135,723,21.6933435432353,,,2.37367379967632,410,KOR
Kosovo,2020-05-21 13:32:48,42.602636,20.902977,1003,29,772,202,55.4031615706437,,,2.8913260219342,383,XKS
Kuwait,2020-05-21 13:32:48,29.31166,47.481766,18609,129,5205,13275,435.750508773668,,,0.693212961470256,414,KWT
Kyrgyzstan,2020-05-21 13:32:48,41.20438,74.766098,1313,14,923,376,20.1251005680245,,,1.06626047220107,417,KGZ
Laos,2020-05-21 13:32:48,19.85627,102.495496,19,0,14,5,0.261148426319583,,,0,418,LAO
Latvia,2020-05-21 13:32:48,56.8796,24.6032,1025,22,694,309,54.3420057872911,,,2.14634146341463,428,LVA
Lebanon,2020-05-21 13:32:48,33.8547,35.8623,1024,26,663,335,15.0026914007913,,,2.5390625,422,LBN
Lesotho,2020-05-21 13:32:48,-29.609988,28.233608,1,0,0,1,0.0466798490560401,,,0,426,LSO
Liberia,2020-05-21 13:32:48,6.428055,-9.429499,240,23,131,86,4.74526151037324,,,9.58333333333333,430,LBR
Libya,2020-05-21 13:32:48,26.3351,17.228331,69,3,35,31,1.00417869316185,,,4.34782608695652,434,LBY
Liechtenstein,2020-05-21 13:32:48,47.14,9.55,82,1,55,26,215.014290583947,,,1.21951219512195,438,LIE
Lithuania,2020-05-21 13:32:48,55.1694,23.8813,1593,61,1049,483,58.5168888998274,,,3.82925298179535,440,LTU
Luxembourg,2020-05-21 13:32:48,49.8153,6.1296,3971,109,3728,134,634.369368793692,,,2.74490052883405,442,LUX
MS Zaandam,2020-05-21 13:32:48,,,9,2,0,7,,,,22.2222222222222,8888,
Madagascar,2020-05-21 13:32:48,-18.766947,46.869107,405,2,131,272,1.46256806222985,,,0.493827160493827,450,MDG
Malawi,2020-05-21 13:32:48,-13.254308,34.301525,71,3,27,41,0.37114567180111,,,4.22535211267606,454,MWI
Malaysia,2020-05-21 13:32:48,4.210484,101.975766,7059,114,5796,1149,21.809925342021,,,1.61495962600935,458,MYS
Maldives,2020-05-21 13:32:48,3.2028,73.2207,1216,4,91,1121,224.95939260964,,,0.328947368421053,462,MDV
Mali,2020-05-21 13:32:48,17.570692,-3.996166,931,55,543,333,4.59734152183559,,,5.90762620837809,466,MLI
Malta,2020-05-21 13:32:48,35.9375,14.3754,599,6,468,125,135.661855464636,,,1.0016694490818,470,MLT
Mauritania,2020-05-21 13:32:48,21.0079,-10.9408,141,4,7,130,3.03247979422151,,,2.83687943262411,478,MRT
Mauritius,2020-05-21 13:32:48,-20.348404,57.552152,332,10,322,0,26.1054108181766,,,3.01204819277108,480,MUS
Moldova,2020-05-21 13:32:48,47.4116,28.3699,6553,228,2953,3372,162.445714053401,,,3.47932244773386,498,MDA
Monaco,2020-05-21 13:32:48,43.7333,7.4167,97,4,90,3,247.17154214657,,,4.12371134020619,492,MCO
Mongolia,2020-05-21 13:32:48,46.8625,103.8467,140,0,26,114,4.27051647626264,,,0,496,MNG
Montenegro,2020-05-21 13:32:48,42.708678,19.37439,324,9,314,1,51.5872636777898,,,2.77777777777778,499,MNE
Morocco,2020-05-21 13:32:48,31.7917,-7.0926,7185,196,4212,2777,19.4659750199387,,,2.72790535838553,504,MAR
Mozambique,2020-05-21 13:32:48,-18.665695,35.529562,156,0,48,108,0.499113194233259,,,0,508,MOZ
Namibia,2020-05-21 13:32:48,-22.9576,18.4904,18,0,14,4,0.70840594494269,,,0,516,NAM
Nepal,2020-05-21 13:32:48,28.1667,84.25,453,3,49,401,1.5547344788077,,,0.662251655629139,524,NPL
New Zealand,2020-05-21 13:32:48,-40.9006,174.886,1503,21,1452,30,31.1681331034813,,,1.39720558882236,554,NZL
Nicaragua,2020-05-21 13:32:48,12.865416,-85.207229,254,17,199,38,3.83422038676113,,,6.69291338582677,558,NIC
Niger,2020-05-21 13:32:48,17.607789,8.081666,920,58,738,124,3.80061070856768,,,6.30434782608696,562,NER
Nigeria,2020-05-21 13:32:48,9.082,8.6753,6677,200,1840,4637,3.23906732189194,,,2.99535719634566,566,NGA
North Macedonia,2020-05-21 13:32:48,41.6086,21.7453,1898,111,1378,409,91.1019593161113,,,5.84826132771338,807,MKD
Oman,2020-05-21 13:32:48,21.512583,55.923255,6370,30,1821,4519,124.739994462093,,,0.470957613814757,512,OMN
Pakistan,2020-05-21 13:32:48,30.3753,69.3451,48091,1017,14155,32919,21.7712402156687,,,2.11474080389262,586,PAK
Panama,2020-05-21 13:32:48,8.538,-80.7821,9977,287,6194,3496,231.229118228373,,,2.87661621729979,591,PAN
Papua New Guinea,2020-05-21 13:32:48,-6.314993,143.95555,8,0,8,0,0.0894151766838303,,,0,598,PNG
Paraguay,2020-05-21 13:32:48,-23.4425,-58.4438,833,11,242,580,11.6788853324136,,,1.32052821128451,600,PRY
Peru,2020-05-21 13:32:48,-9.19,-75.0152,104020,3024,41968,59028,315.481274539496,,,2.907133243607,604,PER
Philippines,2020-05-21 13:32:48,12.879721,121.774017,13434,846,3000,9588,12.2594150258687,,,6.29745422063421,608,PHL
Poland,2020-05-21 13:32:48,51.9194,19.1451,19983,965,8452,10566,52.7999803416978,,,4.82910473902817,616,POL
Portugal,2020-05-21 13:32:48,39.3999,-8.2245,29912,1277,6452,22183,293.349607868501,,,4.26918962289382,620,PRT
Qatar,2020-05-21 13:32:48,25.3548,51.1839,38651,17,7288,31346,1341.55484439755,,,0.0439833380766345,634,QAT
Romania,2020-05-21 13:32:48,45.9432,24.9668,17585,1151,10581,5853,91.4091417042864,,,6.54535115154962,642,ROU
Rwanda,2020-05-21 13:32:48,-1.9403,29.8739,314,0,216,98,2.42429689020614,,,0,646,RWA
Saint Kitts and Nevis,2020-05-21 13:32:48,17.357822,-62.782998,15,0,15,0,28.1997292825989,,,0,659,KNA
Saint Lucia,2020-05-21 13:32:48,13.9094,-60.9789,18,0,18,0,9.80237326348235,,,0,662,LCA
Saint Vincent and the Grenadines,2020-05-21 13:32:48,12.9843,-61.2872,18,0,14,4,16.2239627930453,,,0,670,VCT
San Marino,2020-05-21 13:32:48,43.9424,12.4578,658,41,235,382,1938.82963050268,,,6.23100303951368,674,SMR
Sao Tome and Principe,2020-05-21 13:32:48,0.18636,6.613081,251,8,4,239,114.527676000748,,,3.18725099601594,678,STP
Saudi Arabia,2020-05-21 13:32:48,23.885942,45.079162,65077,351,36040,28686,186.928386898244,,,0.53936106458503,682,SAU
Senegal,2020-05-21 13:32:48,14.4974,-14.4524,2812,30,1251,1531,16.7941456993669,,,1.06685633001422,686,SEN
Serbia,2020-05-21 13:32:48,44.0165,21.0059,10919,237,5370,5312,124.968955189033,,,2.17052843667002,688,SRB
Seychelles,2020-05-21 13:32:48,-4.6796,55.492,11,0,11,0,11.1856823266219,,,0,690,SYC
Sierra Leone,2020-05-21 13:32:48,8.460555,-11.779889,570,34,205,331,7.14555687393169,,,5.96491228070175,694,SLE
Singapore,2020-05-21 13:32:48,1.2833,103.8333,29812,22,11207,18583,509.576959846628,,,0.073795786931437,702,SGP
Slovakia,2020-05-21 13:32:48,48.669,19.699,1502,28,1245,229,27.5109563024542,,,1.8641810918775,703,SVK
Slovenia,2020-05-21 13:32:48,46.1512,14.9955,1468,106,1340,22,70.6131802290792,,,7.22070844686649,705,SVN
Somalia,2020-05-21 13:32:48,5.152149,46.199616,1573,61,188,1324,9.89730274276092,,,3.87794024157661,706,SOM
South Africa,2020-05-21 13:32:48,-30.5595,22.9375,18003,339,8950,8714,30.3547422814431,,,1.88301949675054,710,ZAF
South Sudan,2020-05-21 13:32:48,6.877,31.307,481,4,4,473,4.29704882081744,,,0.831600831600832,728,SSD
Sri Lanka,2020-05-21 13:32:48,7.873054,80.771797,1045,9,604,432,4.88015597819107,,,0.861244019138756,144,LKA
Sudan,2020-05-21 13:32:48,12.8628,30.2176,3138,121,309,2708,7.1563336665886,,,3.8559592096877,729,SDN
Suriname,2020-05-21 13:32:48,3.9193,-56.0278,11,1,9,1,1.87510440922279,,,9.09090909090909,740,SUR
Syria,2020-05-21 13:32:48,34.802075,38.996815,58,3,36,19,0.331416129120181,,,5.17241379310345,760,SYR
Taiwan*,2020-05-21 13:32:48,23.7,121,440,7,398,35,1.84743736295111,,,1.59090909090909,158,TWN
Tajikistan,2020-05-21 13:32:48,38.861034,71.276093,2140,41,470,1629,22.4374116789034,,,1.91588785046729,762,TJK
Tanzania,2020-05-21 13:32:48,-6.369028,34.888822,509,21,183,305,0.852107987092757,,,4.12573673870334,834,TZA
Thailand,2020-05-21 13:32:48,15.870032,100.992541,3037,56,2897,84,4.35100423670621,,,1.84392492591373,764,THA
Timor-Leste,2020-05-21 13:32:48,-8.874217,125.727539,24,0,24,0,1.82033035962143,,,0,626,TLS
Togo,2020-05-21 13:32:48,8.6195,0.8248,340,12,110,218,4.10690664530109,,,3.52941176470588,768,TGO
Trinidad and Tobago,2020-05-21 13:32:48,10.6918,-61.2225,116,8,107,1,8.2887278303326,,,6.89655172413793,780,TTO
Tunisia,2020-05-21 13:32:48,33.886917,9.537499,1045,47,862,136,8.84198135518045,,,4.49760765550239,788,TUN
Turkey,2020-05-21 13:32:48,38.9637,35.2433,152587,4222,113987,34378,180.92090110506,,,2.76694607011082,792,TUR
Uganda,2020-05-21 13:32:48,1.373333,32.290275,145,0,65,80,0.317002251809099,,,0,800,UGA
Ukraine,2020-05-21 13:32:48,48.3794,31.1656,19706,579,6227,12900,45.0590126497016,,,2.9381914137826,804,UKR
United Arab Emirates,2020-05-21 13:32:48,23.424076,53.847818,26004,233,11809,13962,262.921620965785,,,0.89601599753884,784,ARE
Uruguay,2020-05-21 13:32:48,-32.5228,-55.7658,746,20,588,138,21.4754930367297,,,2.68096514745308,858,URY
Uzbekistan,2020-05-21 13:32:48,41.377491,64.585262,2950,13,2407,530,8.81407409839716,,,0.440677966101695,860,UZB
Venezuela,2020-05-21 13:32:48,6.4238,-66.5897,824,10,262,552,2.8977410736827,,,1.21359223300971,862,VEN
Vietnam,2020-05-21 13:32:48,14.058324,108.277199,324,0,264,60,0.332858759614366,,,0,704,VNM
West Bank and Gaza,2020-05-21 13:32:48,31.9522,35.2332,398,2,346,50,7.80175543417749,,,0.50251256281407,275,PSE
Western Sahara,2020-05-21 13:32:48,24.2155,-12.8858,6,0,6,0,1.00446989101502,,,0,732,ESH
Yemen,2020-05-21 13:32:48,15.552727,48.516388,184,30,5,149,0.616912081445269,,,16.304347826087,887,YEM
Zambia,2020-05-21 13:32:48,-13.133897,27.849332,832,7,197,628,4.52568533127473,,,0.841346153846154,894,ZMB
Zimbabwe,2020-05-21 13:32:48,-19.015438,29.154857,48,4,18,26,0.322951192588109,,,8.33333333333333,716,ZWE
